^C:\USERS\RTIMU\DOCUMENTS\PROGRAMS\NEW-FOLDER\МАРТ\STACK\STACK\DEBUG\SLIST.OBJ|C:\USERS\RTIMU\DOCUMENTS\PROGRAMS\NEW-FOLDER\МАРТ\STACK\STACK\DEBUG\STACK.OBJ|C:\USERS\RTIMU\DOCUMENTS\PROGRAMS\NEW-FOLDER\МАРТ\STACK\STACK\DEBUG\STDAFX.OBJ
C:\USERS\RTIMU\DOCUMENTS\PROGRAMS\NEW-FOLDER\Март\STACK\DEBUG\STACK.EXE
C:\USERS\RTIMU\DOCUMENTS\PROGRAMS\NEW-FOLDER\Март\STACK\DEBUG\STACK.ILK
C:\USERS\RTIMU\DOCUMENTS\PROGRAMS\NEW-FOLDER\МАРТ\STACK\DEBUG\STACK.PDB
